…
### Найти самого высокого персонажа.
> starwars %>%
+     filter(height == max(height, na.rm = TRUE))
# A tibble: 1 × 14
  name      height  mass hair_color skin_color eye_color birth_year sex   gender homeworld species films
  <chr>      <int> <dbl> <chr>      <chr>      <chr>          <dbl> <chr> <chr>  <chr>     <chr>   <lis>
1 Yarael P…    264    NA none       white      yellow            NA male  mascu… Quermia   Quermi… <chr>
# ℹ 2 more variables: vehicles <list>, starships <list>


### Найти всех персонажей ниже 170
> starwars %>% filter(height < 170)
# A tibble: 22 × 14
   name     height  mass hair_color skin_color eye_color birth_year sex   gender homeworld species films
   <chr>     <int> <dbl> <chr>      <chr>      <chr>          <dbl> <chr> <chr>  <chr>     <chr>   <lis>
 1 C-3PO       167    75 NA         gold       yellow           112 none  mascu… Tatooine  Droid   <chr>
 2 R2-D2        96    32 NA         white, bl… red               33 none  mascu… Naboo     Droid   <chr>
 3 Leia Or…    150    49 brown      light      brown             19 fema… femin… Alderaan  Human   <chr>
 4 Beru Wh…    165    75 brown      light      blue              47 fema… femin… Tatooine  Human   <chr>
 5 R5-D4        97    32 NA         white, red red               NA none  mascu… Tatooine  Droid   <chr>
 6 Yoda         66    17 white      green      brown            896 male  mascu… NA        Yoda's… <chr>
 7 Mon Mot…    150    NA auburn     fair       blue              48 fema… femin… Chandrila Human   <chr>
 8 Wicket …     88    20 brown      brown      brown              8 male  mascu… Endor     Ewok    <chr>
 9 Nien Nu…    160    68 none       grey       black             NA male  mascu… Sullust   Sullus… <chr>
10 Watto       137    NA black      blue, grey yellow            NA male  mascu… Toydaria  Toydar… <chr>
# ℹ 12 more rows
# ℹ 2 more variables: vehicles <list>, starships <list>
# ℹ Use `print(n = ...)` to see more rows


### Подсчитать ИМТ (индекс массы тела) для всех персонажей.
> starwars %>%
+     mutate(height_m = height / 100,bmi = mass / (height_m)^2) %>%
+     select(name, mass, height, bmi)
# A tibble: 87 × 4
   name                mass height   bmi
   <chr>              <dbl>  <int> <dbl>
 1 Luke Skywalker        77    172  26.0
 2 C-3PO                 75    167  26.9
 3 R2-D2                 32     96  34.7
 4 Darth Vader          136    202  33.3
 5 Leia Organa           49    150  21.8
 6 Owen Lars            120    178  37.9
 7 Beru Whitesun Lars    75    165  27.5
 8 R5-D4                 32     97  34.0
 9 Biggs Darklighter     84    183  25.1
10 Obi-Wan Kenobi        77    182  23.2
# ℹ 77 more rows
# ℹ Use `print(n = ...)` to see more rows
…
### Подсчитать среднюю длину имени в каждой расе вселенной Звездных войн.
> starwars %>%
+     filter(!is.na(name) & !is.na(species)) %>%
+     group_by(species) %>%
+     summarise(average_name_length = mean(nchar(name)))
# A tibble: 37 × 2
   species   average_name_length
   <chr>                   <dbl>
 1 Aleena                  12   
 2 Besalisk                15   
 3 Cerean                  12   
 4 Chagrian                10   
 5 Clawdite                10   
 6 Droid                    4.83
 7 Dug                      7   
 8 Ewok                    21   
 9 Geonosian               17   
10 Gungan                  11.7 
# ℹ 27 more rows
# ℹ Use `print(n = ...)` to see more rows
…
