…
    # A tibble: 1 × 14
      name      height  mass hair_color skin_color eye_color birth_year sex   gender
      <chr>      <int> <dbl> <chr>      <chr>      <chr>          <dbl> <chr> <chr> 
    1 Yarael P…    264    NA none       white      yellow            NA male  mascu…
    # ℹ 5 more variables: homeworld <chr>, species <chr>, films <list>,
    #   vehicles <list>, starships <list>

### Найти всех персонажей ниже 170

``` r
starwars %>% filter(height < 170)
```

    # A tibble: 22 × 14
       name     height  mass hair_color skin_color eye_color birth_year sex   gender
       <chr>     <int> <dbl> <chr>      <chr>      <chr>          <dbl> <chr> <chr> 
     1 C-3PO       167    75 <NA>       gold       yellow           112 none  mascu…
     2 R2-D2        96    32 <NA>       white, bl… red               33 none  mascu…
     3 Leia Or…    150    49 brown      light      brown             19 fema… femin…
     4 Beru Wh…    165    75 brown      light      blue              47 fema… femin…
     5 R5-D4        97    32 <NA>       white, red red               NA none  mascu…
     6 Yoda         66    17 white      green      brown            896 male  mascu…
     7 Mon Mot…    150    NA auburn     fair       blue              48 fema… femin…
     8 Wicket …     88    20 brown      brown      brown              8 male  mascu…
     9 Nien Nu…    160    68 none       grey       black             NA male  mascu…
    10 Watto       137    NA black      blue, grey yellow            NA male  mascu…
    # ℹ 12 more rows
    # ℹ 5 more variables: homeworld <chr>, species <chr>, films <list>,
    #   vehicles <list>, starships <list>

### Подсчитать ИМТ (индекс массы тела) для всех персонажей.

``` r
starwars %>%
     mutate(height_m = height / 100,bmi = mass / (height_m)^2) %>%
     select(name, mass, height, bmi)
```

    # A tibble: 87 × 4
       name                mass height   bmi
       <chr>              <dbl>  <int> <dbl>
     1 Luke Skywalker        77    172  26.0
     2 C-3PO                 75    167  26.9
     3 R2-D2                 32     96  34.7
     4 Darth Vader          136    202  33.3
     5 Leia Organa           49    150  21.8
     6 Owen Lars            120    178  37.9
     7 Beru Whitesun Lars    75    165  27.5
     8 R5-D4                 32     97  34.0
     9 Biggs Darklighter     84    183  25.1
    10 Obi-Wan Kenobi        77    182  23.2
    # ℹ 77 more rows
…
    # A tibble: 1 × 2
      eye_color     n
      <chr>     <int>
    1 brown        21

### Подсчитать среднюю длину имени в каждой расе вселенной Звездных войн.

``` r
starwars %>%
     filter(!is.na(name) & !is.na(species)) %>%
     group_by(species) %>%
     summarise(average_name_length = mean(nchar(name)))
```

    # A tibble: 37 × 2
       species   average_name_length
       <chr>                   <dbl>
     1 Aleena                  12   
     2 Besalisk                15   
     3 Cerean                  12   
     4 Chagrian                10   
     5 Clawdite                10   
     6 Droid                    4.83
     7 Dug                      7   
     8 Ewok                    21   
     9 Geonosian               17   
    10 Gungan                  11.7 
    # ℹ 27 more rows
…
