…
    `summarise()` has grouped output by 'id.orig_h'. You can override using the
    `.groups` argument.

``` r
# Выводим IP и домены с признаками периодичности
print(regular_intervals)
```

    # A tibble: 35 × 5
    # Groups:   id.orig_h [34]
       id.orig_h                            query mean_interval sd_interval count
       <chr>                                <chr>         <dbl>       <dbl> <int>
     1 192.168.202.148                      1           0.00143     0.00378     7
     2 192.168.27.254                       1           5.00        0.00535     7
     3 169.254.228.26                       1           0.163       0.207      23
     4 192.168.95.166                       1           0.0888      0.240      17
     5 192.168.202.146                      1           0.306       0.294      27
     6 2001:dbb:c18:202:d4bc:e39f:84ad:5001 1           0.153       0.382      62
     7 192.168.202.157                      1           0.363       0.459    1490
     8 2001:dbb:c18:202:216:d3ff:fe4b:70d   -           0.517       0.518       8
     9 2001:dbb:c18:202:d557:eac5:3728:41ee 1           0.499       0.892      17
    10 192.168.202.128                      1           0.368       0.916      93
    # ℹ 25 more rows
…
