…
    Найдено OPN точек: 42 

``` r
if(nrow(unsafe_aps) > 0) {
  print(unsafe_aps %>% select(BSSID, ESSID, channel, Privacy))
} else {
  cat("OPN точки не найдены. Проверим все значения Privacy:\n")
  print(table(ap_data$Privacy))
}
```

    # A tibble: 42 × 4
       BSSID             ESSID         channel Privacy
       <chr>             <chr>           <dbl> <chr>  
     1 E8:28:C1:DC:B2:52 MIREA_HOTSPOT       6 OPN    
     2 E8:28:C1:DC:B2:50 MIREA_GUESTS        6 OPN    
     3 E8:28:C1:DC:B2:51 <NA>                6 OPN    
     4 E8:28:C1:DC:FF:F2 <NA>                6 OPN    
     5 00:25:00:FF:94:73 <NA>               44 OPN    
     6 E8:28:C1:DD:04:52 MIREA_HOTSPOT      11 OPN    
     7 E8:28:C1:DE:74:31 <NA>                6 OPN    
     8 E8:28:C1:DE:74:32 MIREA_HOTSPOT       6 OPN    
     9 E8:28:C1:DC:C8:32 MIREA_HOTSPOT       1 OPN    
    10 E8:28:C1:DD:04:50 MIREA_GUESTS       11 OPN    
    # ℹ 32 more rows
…
